intro • portaldata
…
trees[1:3,-(5:10)]

## # A tibble: 3 × 12
##   SURVEY  YEAR SITE  TREATMENT HEIGHT AXIS_1 AXIS_2  CIRC MEASUR…¹ STEMS canop…²
##    <dbl> <dbl> <chr> <chr>      <dbl>  <dbl>  <dbl> <dbl> <chr>    <chr>   <dbl>
## 1      1  2009 SOUTH TOTAL       3.4    6.1    5     37.8 D        1        30.5
## 2      2  2010 SOUTH TOTAL       3.32   8.25   8.45  18.8 D        1        69.7
## 3      3  2011 SOUTH TOTAL       3.65   8.85   9     57   C        1        79.6
## # … with 1 more variable: area <dbl>, and abbreviated variable names
## #   ¹​MEASUREMENT, ²​canopy_area

trees

## # A tibble: 7,508 × 18
##    SURVEY  YEAR SITE  TREATMENT BLOCK PLOT  SPECIES ORIGI…¹ NEW_TAG DEAD  HEIGHT
##     <dbl> <dbl> <chr> <chr>     <dbl> <chr> <chr>     <dbl>   <dbl> <chr>  <dbl>
##  1      1  2009 SOUTH TOTAL         2 S2TO… Acacia…       1      NA N       3.4 
##  2      2  2010 SOUTH TOTAL         2 S2TO… Acacia…       1      NA N       3.32
##  3      3  2011 SOUTH TOTAL         2 S2TO… Acacia…       1      NA N       3.65
##  4      4  2012 SOUTH TOTAL         2 S2TO… Acacia…       1      NA N       3.74
##  5      5  2013 SOUTH TOTAL         2 S2TO… Acacia…       1      NA N       3.59
##  6      1  2009 SOUTH TOTAL         2 S2TO… Acacia…       2      NA N       2.3 
##  7      2  2010 SOUTH TOTAL         2 S2TO… Acacia…       2      NA N       2.32
##  8      3  2011 SOUTH TOTAL         2 S2TO… Acacia…       2      NA N       2.75
##  9      4  2012 SOUTH TOTAL         2 S2TO… Acacia…       2      NA Y      NA   
## 10      5  2013 SOUTH TOTAL         2 S2TO… Acacia…       2      NA N       2.86
## # … with 7,498 more rows, 7 more variables: AXIS_1 <dbl>, AXIS_2 <dbl>,
## #   CIRC <dbl>, MEASUREMENT <chr>, STEMS <chr>, canopy_area <dbl>, area <dbl>,
## #   and abbreviated variable name ¹​ORIGINAL_TAG
…
